%YAML 1.1
%TAG !u! tag:unity3d.com,2011:
--- !u!162 &1
EditorUserSettings:
  m_ObjectHideFlags: 0
  serializedVersion: 4
  m_ConfigSettings:
    RecentlyUsedScenePath-0:
      value: 22424703114646680e0b0227036c6c111b07142f1f2b233e2867083debf42d
      flags: 0
    RecentlyUsedScenePath-1:
      value: 224247031146467e150b1e2119305a5f25141d24293b69122c3d093fe7ae2136ebf32f
      flags: 0
    RecentlyUsedScenePath-2:
      value: 224247031146467e150b1e2119305a5f25141d24293b691c2c3c1330eacd3136f7a923e7ee2e26
      flags: 0
    RecentlyUsedScenePath-3:
      value: 224247031146467e150b1e2119305a5f34160c3e202d1539203c1132f6e93b36adc537fdf3363a722c0ce6281d
      flags: 0
    RecentlyUsedScenePath-4:
      value: 224247031146467e150b1e2119305a5f34160c3e202d05222828093aedee7b14e3f238eaef173a322c4cfa320d2a18
      flags: 0
    vcSharedLogLevel:
      value: 0d5e400f0650
      flags: 0
  m_VCAutomaticAdd: 1
  m_VCDebugCom: 0
  m_VCDebugCmd: 0
  m_VCDebugOut: 0
  m_SemanticMergeMode: 2
  m_VCShowFailedCheckout: 1
  m_VCOverwriteFailedCheckoutAssets: 1
  m_VCProjectOverlayIcons: 1
  m_VCHierarchyOverlayIcons: 1
  m_VCOtherOverlayIcons: 1
  m_VCAllowAsyncUpdate: 1
